-- Merging decision tree log ---
manifest
ADDED from /Users/kumargaurav/TraconmobiProject/6Aug/app/src/main/AndroidManifest.xml:2:1-300:12
	package
		ADDED from /Users/kumargaurav/TraconmobiProject/6Aug/app/src/main/AndroidManifest.xml:3:5-33
		INJECTED from /Users/kumargaurav/TraconmobiProject/6Aug/app/src/main/AndroidManifest.xml
		INJECTED from /Users/kumargaurav/TraconmobiProject/6Aug/app/src/main/AndroidManifest.xml
	android:versionName
		INJECTED from /Users/kumargaurav/TraconmobiProject/6Aug/app/src/main/AndroidManifest.xml
		INJECTED from /Users/kumargaurav/TraconmobiProject/6Aug/app/src/main/AndroidManifest.xml
	xmlns:android
		ADDED from /Users/kumargaurav/TraconmobiProject/6Aug/app/src/main/AndroidManifest.xml:2:11-69
	android:versionCode
		INJECTED from /Users/kumargaurav/TraconmobiProject/6Aug/app/src/main/AndroidManifest.xml
		INJECTED from /Users/kumargaurav/TraconmobiProject/6Aug/app/src/main/AndroidManifest.xml
uses-feature#0x00020000
ADDED from /Users/kumargaurav/TraconmobiProject/6Aug/app/src/main/AndroidManifest.xml:5:5-7:35
	android:glEsVersion
		ADDED from /Users/kumargaurav/TraconmobiProject/6Aug/app/src/main/AndroidManifest.xml:6:9-41
	android:required
		ADDED from /Users/kumargaurav/TraconmobiProject/6Aug/app/src/main/AndroidManifest.xml:7:9-32
permission#com.traconmobi.tom.permission.MAPS_RECEIVE
ADDED from /Users/kumargaurav/TraconmobiProject/6Aug/app/src/main/AndroidManifest.xml:9:5-11:47
	android:protectionLevel
		ADDED from /Users/kumargaurav/TraconmobiProject/6Aug/app/src/main/AndroidManifest.xml:11:9-44
	android:name
		ADDED from /Users/kumargaurav/TraconmobiProject/6Aug/app/src/main/AndroidManifest.xml:10:9-66
uses-permission#com.traconmobi.tom.permission.MAPS_RECEIVE
ADDED from /Users/kumargaurav/TraconmobiProject/6Aug/app/src/main/AndroidManifest.xml:13:5-82
	android:name
		ADDED from /Users/kumargaurav/TraconmobiProject/6Aug/app/src/main/AndroidManifest.xml:13:22-79
uses-feature#android.hardware.location.gps
ADDED from /Users/kumargaurav/TraconmobiProject/6Aug/app/src/main/AndroidManifest.xml:15:5-66
	android:name
		ADDED from /Users/kumargaurav/TraconmobiProject/6Aug/app/src/main/AndroidManifest.xml:15:19-63
uses-permission#android.permission.INTERNET
ADDED from /Users/kumargaurav/TraconmobiProject/6Aug/app/src/main/AndroidManifest.xml:17:5-67
MERGED from [com.crashlytics.sdk.android:crashlytics:2.5.7] /Users/kumargaurav/TraconmobiProject/6Aug/app/build/intermediates/exploded-aar/com.crashlytics.sdk.android/crashlytics/2.5.7/AndroidManifest.xml:9:5-67
MERGED from [com.crashlytics.sdk.android:beta:1.1.6] /Users/kumargaurav/TraconmobiProject/6Aug/app/build/intermediates/exploded-aar/com.crashlytics.sdk.android/beta/1.1.6/AndroidManifest.xml:9:5-67
MERGED from [io.fabric.sdk.android:fabric:1.3.12] /Users/kumargaurav/TraconmobiProject/6Aug/app/build/intermediates/exploded-aar/io.fabric.sdk.android/fabric/1.3.12/AndroidManifest.xml:25:5-67
MERGED from [com.crashlytics.sdk.android:answers:1.3.8] /Users/kumargaurav/TraconmobiProject/6Aug/app/build/intermediates/exploded-aar/com.crashlytics.sdk.android/answers/1.3.8/AndroidManifest.xml:9:5-67
MERGED from [io.fabric.sdk.android:fabric:1.3.12] /Users/kumargaurav/TraconmobiProject/6Aug/app/build/intermediates/exploded-aar/io.fabric.sdk.android/fabric/1.3.12/AndroidManifest.xml:25:5-67
MERGED from [com.crashlytics.sdk.android:crashlytics-core:2.3.10] /Users/kumargaurav/TraconmobiProject/6Aug/app/build/intermediates/exploded-aar/com.crashlytics.sdk.android/crashlytics-core/2.3.10/AndroidManifest.xml:9:5-67
MERGED from [com.crashlytics.sdk.android:answers:1.3.8] /Users/kumargaurav/TraconmobiProject/6Aug/app/build/intermediates/exploded-aar/com.crashlytics.sdk.android/answers/1.3.8/AndroidManifest.xml:9:5-67
MERGED from [io.fabric.sdk.android:fabric:1.3.12] /Users/kumargaurav/TraconmobiProject/6Aug/app/build/intermediates/exploded-aar/io.fabric.sdk.android/fabric/1.3.12/AndroidManifest.xml:25:5-67
MERGED from [io.fabric.sdk.android:fabric:1.3.12] /Users/kumargaurav/TraconmobiProject/6Aug/app/build/intermediates/exploded-aar/io.fabric.sdk.android/fabric/1.3.12/AndroidManifest.xml:25:5-67
MERGED from [io.fabric.sdk.android:fabric:1.3.12] /Users/kumargaurav/TraconmobiProject/6Aug/app/build/intermediates/exploded-aar/io.fabric.sdk.android/fabric/1.3.12/AndroidManifest.xml:25:5-67
MERGED from [com.couchbase.lite:couchbase-lite-android:1.1.0-2184] /Users/kumargaurav/TraconmobiProject/6Aug/app/build/intermediates/exploded-aar/com.couchbase.lite/couchbase-lite-android/1.1.0-2184/AndroidManifest.xml:11:5-67
	android:name
		ADDED from /Users/kumargaurav/TraconmobiProject/6Aug/app/src/main/AndroidManifest.xml:17:22-64
uses-permission#android.permission.ACCESS_WIFI_STATE
ADDED from /Users/kumargaurav/TraconmobiProject/6Aug/app/src/main/AndroidManifest.xml:18:5-76
	android:name
		ADDED from /Users/kumargaurav/TraconmobiProject/6Aug/app/src/main/AndroidManifest.xml:18:22-73
uses-permission#android.permission.ACCESS_NETWORK_STATE
ADDED from /Users/kumargaurav/TraconmobiProject/6Aug/app/src/main/AndroidManifest.xml:20:5-79
MERGED from [com.couchbase.lite:couchbase-lite-android:1.1.0-2184] /Users/kumargaurav/TraconmobiProject/6Aug/app/build/intermediates/exploded-aar/com.couchbase.lite/couchbase-lite-android/1.1.0-2184/AndroidManifest.xml:12:5-79
	android:name
		ADDED from /Users/kumargaurav/TraconmobiProject/6Aug/app/src/main/AndroidManifest.xml:20:22-76
uses-permission#android.permission.ACCESS_GPS
ADDED from /Users/kumargaurav/TraconmobiProject/6Aug/app/src/main/AndroidManifest.xml:21:5-22:23
	android:name
		ADDED from /Users/kumargaurav/TraconmobiProject/6Aug/app/src/main/AndroidManifest.xml:21:22-66
uses-permission#com.google.android.providers.gsf.permission.READ_GSERVICES
ADDED from /Users/kumargaurav/TraconmobiProject/6Aug/app/src/main/AndroidManifest.xml:23:5-98
	android:name
		ADDED from /Users/kumargaurav/TraconmobiProject/6Aug/app/src/main/AndroidManifest.xml:23:22-95
uses-permission#android.permission.CALL_PHONE
ADDED from /Users/kumargaurav/TraconmobiProject/6Aug/app/src/main/AndroidManifest.xml:24:5-69
	android:name
		ADDED from /Users/kumargaurav/TraconmobiProject/6Aug/app/src/main/AndroidManifest.xml:24:22-66
uses-permission#android.permission.READ_PHONE_STATE
ADDED from /Users/kumargaurav/TraconmobiProject/6Aug/app/src/main/AndroidManifest.xml:25:5-75
	android:name
		ADDED from /Users/kumargaurav/TraconmobiProject/6Aug/app/src/main/AndroidManifest.xml:25:22-72
uses-permission#android.permission.ACCESS_FINE_LOCATION
ADDED from /Users/kumargaurav/TraconmobiProject/6Aug/app/src/main/AndroidManifest.xml:26:5-79
	android:name
		ADDED from /Users/kumargaurav/TraconmobiProject/6Aug/app/src/main/AndroidManifest.xml:26:22-76
uses-permission#android.permission.CAMERA
ADDED from /Users/kumargaurav/TraconmobiProject/6Aug/app/src/main/AndroidManifest.xml:27:5-65
	android:name
		ADDED from /Users/kumargaurav/TraconmobiProject/6Aug/app/src/main/AndroidManifest.xml:27:22-62
uses-feature#android.hardware.camera
ADDED from /Users/kumargaurav/TraconmobiProject/6Aug/app/src/main/AndroidManifest.xml:29:5-60
	android:name
		ADDED from /Users/kumargaurav/TraconmobiProject/6Aug/app/src/main/AndroidManifest.xml:29:19-57
uses-feature#android.hardware.camera.autofocus
ADDED from /Users/kumargaurav/TraconmobiProject/6Aug/app/src/main/AndroidManifest.xml:30:5-70
	android:name
		ADDED from /Users/kumargaurav/TraconmobiProject/6Aug/app/src/main/AndroidManifest.xml:30:19-67
uses-permission#android.permission.WAKE_LOCK
ADDED from /Users/kumargaurav/TraconmobiProject/6Aug/app/src/main/AndroidManifest.xml:34:5-35:23
	android:name
		ADDED from /Users/kumargaurav/TraconmobiProject/6Aug/app/src/main/AndroidManifest.xml:34:22-65
uses-permission#android.permission.RECEIVE_BOOT_COMPLETED
ADDED from /Users/kumargaurav/TraconmobiProject/6Aug/app/src/main/AndroidManifest.xml:36:5-37:23
	android:name
		ADDED from /Users/kumargaurav/TraconmobiProject/6Aug/app/src/main/AndroidManifest.xml:36:22-78
uses-permission#android.permission.GET_TASKS
ADDED from /Users/kumargaurav/TraconmobiProject/6Aug/app/src/main/AndroidManifest.xml:38:5-68
	android:name
		ADDED from /Users/kumargaurav/TraconmobiProject/6Aug/app/src/main/AndroidManifest.xml:38:22-65
application
ADDED from /Users/kumargaurav/TraconmobiProject/6Aug/app/src/main/AndroidManifest.xml:45:5-297:19
MERGED from [com.crashlytics.sdk.android:crashlytics:2.5.7] /Users/kumargaurav/TraconmobiProject/6Aug/app/build/intermediates/exploded-aar/com.crashlytics.sdk.android/crashlytics/2.5.7/AndroidManifest.xml:11:5-20
MERGED from [com.crashlytics.sdk.android:beta:1.1.6] /Users/kumargaurav/TraconmobiProject/6Aug/app/build/intermediates/exploded-aar/com.crashlytics.sdk.android/beta/1.1.6/AndroidManifest.xml:11:5-20
MERGED from [io.fabric.sdk.android:fabric:1.3.12] /Users/kumargaurav/TraconmobiProject/6Aug/app/build/intermediates/exploded-aar/io.fabric.sdk.android/fabric/1.3.12/AndroidManifest.xml:27:5-20
MERGED from [com.crashlytics.sdk.android:answers:1.3.8] /Users/kumargaurav/TraconmobiProject/6Aug/app/build/intermediates/exploded-aar/com.crashlytics.sdk.android/answers/1.3.8/AndroidManifest.xml:11:5-20
MERGED from [io.fabric.sdk.android:fabric:1.3.12] /Users/kumargaurav/TraconmobiProject/6Aug/app/build/intermediates/exploded-aar/io.fabric.sdk.android/fabric/1.3.12/AndroidManifest.xml:27:5-20
MERGED from [com.crashlytics.sdk.android:crashlytics-core:2.3.10] /Users/kumargaurav/TraconmobiProject/6Aug/app/build/intermediates/exploded-aar/com.crashlytics.sdk.android/crashlytics-core/2.3.10/AndroidManifest.xml:11:5-20
MERGED from [com.crashlytics.sdk.android:answers:1.3.8] /Users/kumargaurav/TraconmobiProject/6Aug/app/build/intermediates/exploded-aar/com.crashlytics.sdk.android/answers/1.3.8/AndroidManifest.xml:11:5-20
MERGED from [io.fabric.sdk.android:fabric:1.3.12] /Users/kumargaurav/TraconmobiProject/6Aug/app/build/intermediates/exploded-aar/io.fabric.sdk.android/fabric/1.3.12/AndroidManifest.xml:27:5-20
MERGED from [io.fabric.sdk.android:fabric:1.3.12] /Users/kumargaurav/TraconmobiProject/6Aug/app/build/intermediates/exploded-aar/io.fabric.sdk.android/fabric/1.3.12/AndroidManifest.xml:27:5-20
MERGED from [io.fabric.sdk.android:fabric:1.3.12] /Users/kumargaurav/TraconmobiProject/6Aug/app/build/intermediates/exploded-aar/io.fabric.sdk.android/fabric/1.3.12/AndroidManifest.xml:27:5-20
MERGED from [com.android.support:appcompat-v7:23.0.0] /Users/kumargaurav/TraconmobiProject/6Aug/app/build/intermediates/exploded-aar/com.android.support/appcompat-v7/23.0.0/AndroidManifest.xml:22:5-20
MERGED from [com.android.support:support-v4:23.0.0] /Users/kumargaurav/TraconmobiProject/6Aug/app/build/intermediates/exploded-aar/com.android.support/support-v4/23.0.0/AndroidManifest.xml:22:5-20
MERGED from [com.couchbase.lite:couchbase-lite-android:1.1.0-2184] /Users/kumargaurav/TraconmobiProject/6Aug/app/build/intermediates/exploded-aar/com.couchbase.lite/couchbase-lite-android/1.1.0-2184/AndroidManifest.xml:14:5-20
MERGED from [com.google.android.gms:play-services:6.1.71] /Users/kumargaurav/TraconmobiProject/6Aug/app/build/intermediates/exploded-aar/com.google.android.gms/play-services/6.1.71/AndroidManifest.xml:16:5-19
MERGED from [com.android.support:support-v4:23.0.0] /Users/kumargaurav/TraconmobiProject/6Aug/app/build/intermediates/exploded-aar/com.android.support/support-v4/23.0.0/AndroidManifest.xml:22:5-20
MERGED from [com.android.support:cardview-v7:23.0.0] /Users/kumargaurav/TraconmobiProject/6Aug/app/build/intermediates/exploded-aar/com.android.support/cardview-v7/23.0.0/AndroidManifest.xml:22:5-20
MERGED from [com.android.support:support-v4:23.0.0] /Users/kumargaurav/TraconmobiProject/6Aug/app/build/intermediates/exploded-aar/com.android.support/support-v4/23.0.0/AndroidManifest.xml:22:5-20
	android:label
		ADDED from /Users/kumargaurav/TraconmobiProject/6Aug/app/src/main/AndroidManifest.xml:48:9-41
	android:allowBackup
		ADDED from /Users/kumargaurav/TraconmobiProject/6Aug/app/src/main/AndroidManifest.xml:46:9-35
	android:icon
		ADDED from /Users/kumargaurav/TraconmobiProject/6Aug/app/src/main/AndroidManifest.xml:47:9-40
	android:largeHeap
		ADDED from /Users/kumargaurav/TraconmobiProject/6Aug/app/src/main/AndroidManifest.xml:50:9-33
	android:theme
		ADDED from /Users/kumargaurav/TraconmobiProject/6Aug/app/src/main/AndroidManifest.xml:51:9-40
	android:name
		ADDED from /Users/kumargaurav/TraconmobiProject/6Aug/app/src/main/AndroidManifest.xml:49:9-68
activity#com.traconmobi.tom.TOMLoginUserActivity
ADDED from /Users/kumargaurav/TraconmobiProject/6Aug/app/src/main/AndroidManifest.xml:52:9-61:20
	android:screenOrientation
		ADDED from /Users/kumargaurav/TraconmobiProject/6Aug/app/src/main/AndroidManifest.xml:55:13-49
	android:label
		ADDED from /Users/kumargaurav/TraconmobiProject/6Aug/app/src/main/AndroidManifest.xml:54:13-45
	android:name
		ADDED from /Users/kumargaurav/TraconmobiProject/6Aug/app/src/main/AndroidManifest.xml:53:13-49
intent-filter#android.intent.action.MAIN+android.intent.category.LAUNCHER
ADDED from /Users/kumargaurav/TraconmobiProject/6Aug/app/src/main/AndroidManifest.xml:56:13-60:29
action#android.intent.action.MAIN
ADDED from /Users/kumargaurav/TraconmobiProject/6Aug/app/src/main/AndroidManifest.xml:57:17-69
	android:name
		ADDED from /Users/kumargaurav/TraconmobiProject/6Aug/app/src/main/AndroidManifest.xml:57:25-66
category#android.intent.category.LAUNCHER
ADDED from /Users/kumargaurav/TraconmobiProject/6Aug/app/src/main/AndroidManifest.xml:59:17-77
	android:name
		ADDED from /Users/kumargaurav/TraconmobiProject/6Aug/app/src/main/AndroidManifest.xml:59:27-74
activity#com.traconmobi.tom.HomeMainActivity
ADDED from /Users/kumargaurav/TraconmobiProject/6Aug/app/src/main/AndroidManifest.xml:62:9-66:20
	android:screenOrientation
		ADDED from /Users/kumargaurav/TraconmobiProject/6Aug/app/src/main/AndroidManifest.xml:65:13-49
	android:label
		ADDED from /Users/kumargaurav/TraconmobiProject/6Aug/app/src/main/AndroidManifest.xml:64:13-45
	android:name
		ADDED from /Users/kumargaurav/TraconmobiProject/6Aug/app/src/main/AndroidManifest.xml:63:13-45
meta-data#com.google.android.gms.version
ADDED from /Users/kumargaurav/TraconmobiProject/6Aug/app/src/main/AndroidManifest.xml:68:9-70:69
	android:value
		ADDED from /Users/kumargaurav/TraconmobiProject/6Aug/app/src/main/AndroidManifest.xml:70:13-66
	android:name
		ADDED from /Users/kumargaurav/TraconmobiProject/6Aug/app/src/main/AndroidManifest.xml:69:13-58
meta-data#com.google.android.maps.v2.API_KEY
ADDED from /Users/kumargaurav/TraconmobiProject/6Aug/app/src/main/AndroidManifest.xml:71:9-73:71
	android:value
		ADDED from /Users/kumargaurav/TraconmobiProject/6Aug/app/src/main/AndroidManifest.xml:73:13-68
	android:name
		ADDED from /Users/kumargaurav/TraconmobiProject/6Aug/app/src/main/AndroidManifest.xml:72:13-62
activity#com.traconmobi.tom.NotificationActivity
ADDED from /Users/kumargaurav/TraconmobiProject/6Aug/app/src/main/AndroidManifest.xml:75:9-84:20
	android:screenOrientation
		ADDED from /Users/kumargaurav/TraconmobiProject/6Aug/app/src/main/AndroidManifest.xml:78:13-49
	android:label
		ADDED from /Users/kumargaurav/TraconmobiProject/6Aug/app/src/main/AndroidManifest.xml:77:13-64
	android:name
		ADDED from /Users/kumargaurav/TraconmobiProject/6Aug/app/src/main/AndroidManifest.xml:76:13-49
intent-filter#android.intent.action.VIEW+android.intent.category.DEFAULT
ADDED from /Users/kumargaurav/TraconmobiProject/6Aug/app/src/main/AndroidManifest.xml:79:13-83:29
action#android.intent.action.VIEW
ADDED from /Users/kumargaurav/TraconmobiProject/6Aug/app/src/main/AndroidManifest.xml:80:17-69
	android:name
		ADDED from /Users/kumargaurav/TraconmobiProject/6Aug/app/src/main/AndroidManifest.xml:80:25-66
category#android.intent.category.DEFAULT
ADDED from /Users/kumargaurav/TraconmobiProject/6Aug/app/src/main/AndroidManifest.xml:82:17-76
	android:name
		ADDED from /Users/kumargaurav/TraconmobiProject/6Aug/app/src/main/AndroidManifest.xml:82:27-73
activity#com.traconmobi.tom.ReportsMainActivity
ADDED from /Users/kumargaurav/TraconmobiProject/6Aug/app/src/main/AndroidManifest.xml:86:9-95:20
	android:screenOrientation
		ADDED from /Users/kumargaurav/TraconmobiProject/6Aug/app/src/main/AndroidManifest.xml:89:13-49
	android:label
		ADDED from /Users/kumargaurav/TraconmobiProject/6Aug/app/src/main/AndroidManifest.xml:88:13-64
	android:name
		ADDED from /Users/kumargaurav/TraconmobiProject/6Aug/app/src/main/AndroidManifest.xml:87:13-48
service#com.traconmobi.tom.LocationLoggerService
ADDED from /Users/kumargaurav/TraconmobiProject/6Aug/app/src/main/AndroidManifest.xml:97:9-101:53
	android:enabled
		ADDED from /Users/kumargaurav/TraconmobiProject/6Aug/app/src/main/AndroidManifest.xml:99:13-35
	android:label
		ADDED from /Users/kumargaurav/TraconmobiProject/6Aug/app/src/main/AndroidManifest.xml:101:13-50
	android:exported
		ADDED from /Users/kumargaurav/TraconmobiProject/6Aug/app/src/main/AndroidManifest.xml:100:13-37
	android:name
		ADDED from /Users/kumargaurav/TraconmobiProject/6Aug/app/src/main/AndroidManifest.xml:98:13-50
receiver#com.traconmobi.tom.LocationLoggerServiceManager
ADDED from /Users/kumargaurav/TraconmobiProject/6Aug/app/src/main/AndroidManifest.xml:103:9-111:20
	android:enabled
		ADDED from /Users/kumargaurav/TraconmobiProject/6Aug/app/src/main/AndroidManifest.xml:105:13-35
	android:label
		ADDED from /Users/kumargaurav/TraconmobiProject/6Aug/app/src/main/AndroidManifest.xml:107:13-57
	android:exported
		ADDED from /Users/kumargaurav/TraconmobiProject/6Aug/app/src/main/AndroidManifest.xml:106:13-37
	android:name
		ADDED from /Users/kumargaurav/TraconmobiProject/6Aug/app/src/main/AndroidManifest.xml:104:13-57
intent-filter#android.intent.action.BOOT_COMPLETED
ADDED from /Users/kumargaurav/TraconmobiProject/6Aug/app/src/main/AndroidManifest.xml:108:13-110:29
action#android.intent.action.BOOT_COMPLETED
ADDED from /Users/kumargaurav/TraconmobiProject/6Aug/app/src/main/AndroidManifest.xml:109:17-79
	android:name
		ADDED from /Users/kumargaurav/TraconmobiProject/6Aug/app/src/main/AndroidManifest.xml:109:25-76
receiver#com.traconmobi.tom.SampleAlarmReceiver
ADDED from /Users/kumargaurav/TraconmobiProject/6Aug/app/src/main/AndroidManifest.xml:113:9-114:20
	android:name
		ADDED from /Users/kumargaurav/TraconmobiProject/6Aug/app/src/main/AndroidManifest.xml:113:19-54
receiver#com.traconmobi.tom.SampleBootReceiver
ADDED from /Users/kumargaurav/TraconmobiProject/6Aug/app/src/main/AndroidManifest.xml:115:9-122:20
	android:enabled
		ADDED from /Users/kumargaurav/TraconmobiProject/6Aug/app/src/main/AndroidManifest.xml:117:13-36
	android:name
		ADDED from /Users/kumargaurav/TraconmobiProject/6Aug/app/src/main/AndroidManifest.xml:116:13-47
service#com.traconmobi.tom.PowerConnectionReceiver
ADDED from /Users/kumargaurav/TraconmobiProject/6Aug/app/src/main/AndroidManifest.xml:130:9-131:19
	android:name
		ADDED from /Users/kumargaurav/TraconmobiProject/6Aug/app/src/main/AndroidManifest.xml:130:18-57
activity#com.traconmobi.tom.CaptureSignature
ADDED from /Users/kumargaurav/TraconmobiProject/6Aug/app/src/main/AndroidManifest.xml:144:9-148:20
	android:screenOrientation
		ADDED from /Users/kumargaurav/TraconmobiProject/6Aug/app/src/main/AndroidManifest.xml:147:13-49
	android:label
		ADDED from /Users/kumargaurav/TraconmobiProject/6Aug/app/src/main/AndroidManifest.xml:146:13-69
	android:name
		ADDED from /Users/kumargaurav/TraconmobiProject/6Aug/app/src/main/AndroidManifest.xml:145:13-45
activity#com.traconmobi.tom.AssignedMultipleDelActivity
ADDED from /Users/kumargaurav/TraconmobiProject/6Aug/app/src/main/AndroidManifest.xml:153:9-162:20
	android:screenOrientation
		ADDED from /Users/kumargaurav/TraconmobiProject/6Aug/app/src/main/AndroidManifest.xml:156:13-49
	android:label
		ADDED from /Users/kumargaurav/TraconmobiProject/6Aug/app/src/main/AndroidManifest.xml:155:13-73
	android:name
		ADDED from /Users/kumargaurav/TraconmobiProject/6Aug/app/src/main/AndroidManifest.xml:154:13-56
activity#com.traconmobi.tom.AssignedMultipleUndelActivity
ADDED from /Users/kumargaurav/TraconmobiProject/6Aug/app/src/main/AndroidManifest.xml:163:9-172:20
	android:screenOrientation
		ADDED from /Users/kumargaurav/TraconmobiProject/6Aug/app/src/main/AndroidManifest.xml:166:13-49
	android:label
		ADDED from /Users/kumargaurav/TraconmobiProject/6Aug/app/src/main/AndroidManifest.xml:165:13-75
	android:name
		ADDED from /Users/kumargaurav/TraconmobiProject/6Aug/app/src/main/AndroidManifest.xml:164:13-58
activity#com.traconmobi.tom.Start_End_TripMainActivity
ADDED from /Users/kumargaurav/TraconmobiProject/6Aug/app/src/main/AndroidManifest.xml:174:9-180:20
	android:screenOrientation
		ADDED from /Users/kumargaurav/TraconmobiProject/6Aug/app/src/main/AndroidManifest.xml:178:13-49
	android:label
		ADDED from /Users/kumargaurav/TraconmobiProject/6Aug/app/src/main/AndroidManifest.xml:176:13-45
	android:theme
		ADDED from /Users/kumargaurav/TraconmobiProject/6Aug/app/src/main/AndroidManifest.xml:177:13-77
	android:name
		ADDED from /Users/kumargaurav/TraconmobiProject/6Aug/app/src/main/AndroidManifest.xml:175:13-55
activity#com.traconmobi.tom.HandOverMainActivity
ADDED from /Users/kumargaurav/TraconmobiProject/6Aug/app/src/main/AndroidManifest.xml:182:9-186:20
	android:screenOrientation
		ADDED from /Users/kumargaurav/TraconmobiProject/6Aug/app/src/main/AndroidManifest.xml:185:13-49
	android:label
		ADDED from /Users/kumargaurav/TraconmobiProject/6Aug/app/src/main/AndroidManifest.xml:184:13-66
	android:name
		ADDED from /Users/kumargaurav/TraconmobiProject/6Aug/app/src/main/AndroidManifest.xml:183:13-49
activity#com.traconmobi.tom.HandOver_DtlsActivity
ADDED from /Users/kumargaurav/TraconmobiProject/6Aug/app/src/main/AndroidManifest.xml:187:9-191:20
	android:screenOrientation
		ADDED from /Users/kumargaurav/TraconmobiProject/6Aug/app/src/main/AndroidManifest.xml:190:13-49
	android:label
		ADDED from /Users/kumargaurav/TraconmobiProject/6Aug/app/src/main/AndroidManifest.xml:189:13-67
	android:name
		ADDED from /Users/kumargaurav/TraconmobiProject/6Aug/app/src/main/AndroidManifest.xml:188:13-50
activity#com.traconmobi.tom.AssignedTransferActivity
ADDED from /Users/kumargaurav/TraconmobiProject/6Aug/app/src/main/AndroidManifest.xml:193:9-198:20
	android:screenOrientation
		ADDED from /Users/kumargaurav/TraconmobiProject/6Aug/app/src/main/AndroidManifest.xml:196:13-49
	android:label
		ADDED from /Users/kumargaurav/TraconmobiProject/6Aug/app/src/main/AndroidManifest.xml:195:13-69
	android:windowSoftInputMode
		ADDED from /Users/kumargaurav/TraconmobiProject/6Aug/app/src/main/AndroidManifest.xml:197:13-54
	android:name
		ADDED from /Users/kumargaurav/TraconmobiProject/6Aug/app/src/main/AndroidManifest.xml:194:13-53
activity#com.traconmobi.tom.PickUpScanList
ADDED from /Users/kumargaurav/TraconmobiProject/6Aug/app/src/main/AndroidManifest.xml:199:9-204:20
	android:screenOrientation
		ADDED from /Users/kumargaurav/TraconmobiProject/6Aug/app/src/main/AndroidManifest.xml:203:13-49
	android:label
		ADDED from /Users/kumargaurav/TraconmobiProject/6Aug/app/src/main/AndroidManifest.xml:201:13-69
	android:windowSoftInputMode
		ADDED from /Users/kumargaurav/TraconmobiProject/6Aug/app/src/main/AndroidManifest.xml:202:13-54
	android:name
		ADDED from /Users/kumargaurav/TraconmobiProject/6Aug/app/src/main/AndroidManifest.xml:200:13-43
activity#com.traconmobi.tom.AssgnDtlsMainActivity
ADDED from /Users/kumargaurav/TraconmobiProject/6Aug/app/src/main/AndroidManifest.xml:210:9-214:20
	android:screenOrientation
		ADDED from /Users/kumargaurav/TraconmobiProject/6Aug/app/src/main/AndroidManifest.xml:213:13-49
	android:label
		ADDED from /Users/kumargaurav/TraconmobiProject/6Aug/app/src/main/AndroidManifest.xml:212:13-45
	android:name
		ADDED from /Users/kumargaurav/TraconmobiProject/6Aug/app/src/main/AndroidManifest.xml:211:13-50
activity#com.traconmobi.tom.AssignedListMainActivity
ADDED from /Users/kumargaurav/TraconmobiProject/6Aug/app/src/main/AndroidManifest.xml:215:9-221:20
	android:screenOrientation
		ADDED from /Users/kumargaurav/TraconmobiProject/6Aug/app/src/main/AndroidManifest.xml:218:13-49
	android:label
		ADDED from /Users/kumargaurav/TraconmobiProject/6Aug/app/src/main/AndroidManifest.xml:217:13-70
	android:windowSoftInputMode
		ADDED from /Users/kumargaurav/TraconmobiProject/6Aug/app/src/main/AndroidManifest.xml:219:13-54
	android:name
		ADDED from /Users/kumargaurav/TraconmobiProject/6Aug/app/src/main/AndroidManifest.xml:216:13-53
activity#com.traconmobi.tom.AssignmentCompleteStatus
ADDED from /Users/kumargaurav/TraconmobiProject/6Aug/app/src/main/AndroidManifest.xml:222:9-228:20
	android:screenOrientation
		ADDED from /Users/kumargaurav/TraconmobiProject/6Aug/app/src/main/AndroidManifest.xml:224:13-49
	android:name
		ADDED from /Users/kumargaurav/TraconmobiProject/6Aug/app/src/main/AndroidManifest.xml:223:13-53
activity#com.traconmobi.tom.AssignmentInCompleteStatus
ADDED from /Users/kumargaurav/TraconmobiProject/6Aug/app/src/main/AndroidManifest.xml:229:9-234:20
	android:screenOrientation
		ADDED from /Users/kumargaurav/TraconmobiProject/6Aug/app/src/main/AndroidManifest.xml:231:13-49
	android:name
		ADDED from /Users/kumargaurav/TraconmobiProject/6Aug/app/src/main/AndroidManifest.xml:230:13-55
activity#com.traconmobi.tom.PickUpCancelUpdate
ADDED from /Users/kumargaurav/TraconmobiProject/6Aug/app/src/main/AndroidManifest.xml:235:9-241:20
	android:screenOrientation
		ADDED from /Users/kumargaurav/TraconmobiProject/6Aug/app/src/main/AndroidManifest.xml:237:13-49
	android:name
		ADDED from /Users/kumargaurav/TraconmobiProject/6Aug/app/src/main/AndroidManifest.xml:236:13-47
activity#com.traconmobi.tom.RVPOrderDetails
ADDED from /Users/kumargaurav/TraconmobiProject/6Aug/app/src/main/AndroidManifest.xml:243:9-248:20
	android:screenOrientation
		ADDED from /Users/kumargaurav/TraconmobiProject/6Aug/app/src/main/AndroidManifest.xml:245:13-49
	android:name
		ADDED from /Users/kumargaurav/TraconmobiProject/6Aug/app/src/main/AndroidManifest.xml:244:13-44
activity#com.traconmobi.tom.AssignedMultipleFailedPickup
ADDED from /Users/kumargaurav/TraconmobiProject/6Aug/app/src/main/AndroidManifest.xml:250:9-256:20
	android:screenOrientation
		ADDED from /Users/kumargaurav/TraconmobiProject/6Aug/app/src/main/AndroidManifest.xml:252:13-49
	android:name
		ADDED from /Users/kumargaurav/TraconmobiProject/6Aug/app/src/main/AndroidManifest.xml:251:13-57
activity#com.traconmobi.tom.AssignedMultipleSuccessPickup
ADDED from /Users/kumargaurav/TraconmobiProject/6Aug/app/src/main/AndroidManifest.xml:258:9-264:20
	android:screenOrientation
		ADDED from /Users/kumargaurav/TraconmobiProject/6Aug/app/src/main/AndroidManifest.xml:260:13-49
	android:name
		ADDED from /Users/kumargaurav/TraconmobiProject/6Aug/app/src/main/AndroidManifest.xml:259:13-58
activity#com.traconmobi.tom.Notification
ADDED from /Users/kumargaurav/TraconmobiProject/6Aug/app/src/main/AndroidManifest.xml:266:9-272:20
	android:screenOrientation
		ADDED from /Users/kumargaurav/TraconmobiProject/6Aug/app/src/main/AndroidManifest.xml:268:13-49
	android:name
		ADDED from /Users/kumargaurav/TraconmobiProject/6Aug/app/src/main/AndroidManifest.xml:267:13-41
activity#com.traconmobi.tom.ECOMUserActivity
ADDED from /Users/kumargaurav/TraconmobiProject/6Aug/app/src/main/AndroidManifest.xml:274:9-279:20
	android:screenOrientation
		ADDED from /Users/kumargaurav/TraconmobiProject/6Aug/app/src/main/AndroidManifest.xml:276:13-49
	android:name
		ADDED from /Users/kumargaurav/TraconmobiProject/6Aug/app/src/main/AndroidManifest.xml:275:13-45
activity#com.traconmobi.tom.ECOMCancelUpdate
ADDED from /Users/kumargaurav/TraconmobiProject/6Aug/app/src/main/AndroidManifest.xml:281:9-286:20
	android:screenOrientation
		ADDED from /Users/kumargaurav/TraconmobiProject/6Aug/app/src/main/AndroidManifest.xml:283:13-49
	android:name
		ADDED from /Users/kumargaurav/TraconmobiProject/6Aug/app/src/main/AndroidManifest.xml:282:13-45
service#com.traconmobi.tom.service.Autosync
ADDED from /Users/kumargaurav/TraconmobiProject/6Aug/app/src/main/AndroidManifest.xml:287:9-288:44
	android:exported
		ADDED from /Users/kumargaurav/TraconmobiProject/6Aug/app/src/main/AndroidManifest.xml:288:18-42
	android:name
		ADDED from /Users/kumargaurav/TraconmobiProject/6Aug/app/src/main/AndroidManifest.xml:287:18-50
service#com.traconmobi.tom.service.InitializeCouchDb
ADDED from /Users/kumargaurav/TraconmobiProject/6Aug/app/src/main/AndroidManifest.xml:289:9-290:44
	android:exported
		ADDED from /Users/kumargaurav/TraconmobiProject/6Aug/app/src/main/AndroidManifest.xml:290:18-42
	android:name
		ADDED from /Users/kumargaurav/TraconmobiProject/6Aug/app/src/main/AndroidManifest.xml:289:18-59
service#com.traconmobi.tom.DemoLocationListener
ADDED from /Users/kumargaurav/TraconmobiProject/6Aug/app/src/main/AndroidManifest.xml:291:9-292:39
	android:exported
		ADDED from /Users/kumargaurav/TraconmobiProject/6Aug/app/src/main/AndroidManifest.xml:292:13-37
	android:name
		ADDED from /Users/kumargaurav/TraconmobiProject/6Aug/app/src/main/AndroidManifest.xml:291:18-54
meta-data#io.fabric.ApiKey
ADDED from /Users/kumargaurav/TraconmobiProject/6Aug/app/src/main/AndroidManifest.xml:294:9-296:72
	android:value
		ADDED from /Users/kumargaurav/TraconmobiProject/6Aug/app/src/main/AndroidManifest.xml:296:13-69
	android:name
		ADDED from /Users/kumargaurav/TraconmobiProject/6Aug/app/src/main/AndroidManifest.xml:295:13-44
uses-permission#android.permission.WRITE_EXTERNAL_STORAGE
ADDED from /Users/kumargaurav/TraconmobiProject/6Aug/app/src/main/AndroidManifest.xml:298:5-81
	android:name
		ADDED from /Users/kumargaurav/TraconmobiProject/6Aug/app/src/main/AndroidManifest.xml:298:22-78
uses-sdk
INJECTED from /Users/kumargaurav/TraconmobiProject/6Aug/app/src/main/AndroidManifest.xml reason: use-sdk injection requested
MERGED from [com.android.support:multidex:1.0.1] /Users/kumargaurav/TraconmobiProject/6Aug/app/build/intermediates/exploded-aar/com.android.support/multidex/1.0.1/AndroidManifest.xml:18:5-42
MERGED from [com.crashlytics.sdk.android:crashlytics:2.5.7] /Users/kumargaurav/TraconmobiProject/6Aug/app/build/intermediates/exploded-aar/com.crashlytics.sdk.android/crashlytics/2.5.7/AndroidManifest.xml:7:5-43
MERGED from [com.crashlytics.sdk.android:beta:1.1.6] /Users/kumargaurav/TraconmobiProject/6Aug/app/build/intermediates/exploded-aar/com.crashlytics.sdk.android/beta/1.1.6/AndroidManifest.xml:7:5-43
MERGED from [io.fabric.sdk.android:fabric:1.3.12] /Users/kumargaurav/TraconmobiProject/6Aug/app/build/intermediates/exploded-aar/io.fabric.sdk.android/fabric/1.3.12/AndroidManifest.xml:23:5-43
MERGED from [com.crashlytics.sdk.android:answers:1.3.8] /Users/kumargaurav/TraconmobiProject/6Aug/app/build/intermediates/exploded-aar/com.crashlytics.sdk.android/answers/1.3.8/AndroidManifest.xml:7:5-43
MERGED from [io.fabric.sdk.android:fabric:1.3.12] /Users/kumargaurav/TraconmobiProject/6Aug/app/build/intermediates/exploded-aar/io.fabric.sdk.android/fabric/1.3.12/AndroidManifest.xml:23:5-43
MERGED from [com.crashlytics.sdk.android:crashlytics-core:2.3.10] /Users/kumargaurav/TraconmobiProject/6Aug/app/build/intermediates/exploded-aar/com.crashlytics.sdk.android/crashlytics-core/2.3.10/AndroidManifest.xml:7:5-43
MERGED from [com.crashlytics.sdk.android:answers:1.3.8] /Users/kumargaurav/TraconmobiProject/6Aug/app/build/intermediates/exploded-aar/com.crashlytics.sdk.android/answers/1.3.8/AndroidManifest.xml:7:5-43
MERGED from [io.fabric.sdk.android:fabric:1.3.12] /Users/kumargaurav/TraconmobiProject/6Aug/app/build/intermediates/exploded-aar/io.fabric.sdk.android/fabric/1.3.12/AndroidManifest.xml:23:5-43
MERGED from [io.fabric.sdk.android:fabric:1.3.12] /Users/kumargaurav/TraconmobiProject/6Aug/app/build/intermediates/exploded-aar/io.fabric.sdk.android/fabric/1.3.12/AndroidManifest.xml:23:5-43
MERGED from [io.fabric.sdk.android:fabric:1.3.12] /Users/kumargaurav/TraconmobiProject/6Aug/app/build/intermediates/exploded-aar/io.fabric.sdk.android/fabric/1.3.12/AndroidManifest.xml:23:5-43
MERGED from [com.android.support:appcompat-v7:23.0.0] /Users/kumargaurav/TraconmobiProject/6Aug/app/build/intermediates/exploded-aar/com.android.support/appcompat-v7/23.0.0/AndroidManifest.xml:20:5-43
MERGED from [com.android.support:support-v4:23.0.0] /Users/kumargaurav/TraconmobiProject/6Aug/app/build/intermediates/exploded-aar/com.android.support/support-v4/23.0.0/AndroidManifest.xml:20:5-43
MERGED from [com.couchbase.lite:couchbase-lite-android:1.1.0-2184] /Users/kumargaurav/TraconmobiProject/6Aug/app/build/intermediates/exploded-aar/com.couchbase.lite/couchbase-lite-android/1.1.0-2184/AndroidManifest.xml:7:5-9:41
MERGED from [com.google.android.gms:play-services:6.1.71] /Users/kumargaurav/TraconmobiProject/6Aug/app/build/intermediates/exploded-aar/com.google.android.gms/play-services/6.1.71/AndroidManifest.xml:15:5-42
MERGED from [com.android.support:support-v4:23.0.0] /Users/kumargaurav/TraconmobiProject/6Aug/app/build/intermediates/exploded-aar/com.android.support/support-v4/23.0.0/AndroidManifest.xml:20:5-43
MERGED from [com.android.support:cardview-v7:23.0.0] /Users/kumargaurav/TraconmobiProject/6Aug/app/build/intermediates/exploded-aar/com.android.support/cardview-v7/23.0.0/AndroidManifest.xml:20:5-43
MERGED from [com.android.support:recyclerview-v7:23.0.0] /Users/kumargaurav/TraconmobiProject/6Aug/app/build/intermediates/exploded-aar/com.android.support/recyclerview-v7/23.0.0/AndroidManifest.xml:20:5-43
MERGED from [com.android.support:support-v4:23.0.0] /Users/kumargaurav/TraconmobiProject/6Aug/app/build/intermediates/exploded-aar/com.android.support/support-v4/23.0.0/AndroidManifest.xml:20:5-43
MERGED from [com.android.support:multidex:1.0.1] /Users/kumargaurav/TraconmobiProject/6Aug/app/build/intermediates/exploded-aar/com.android.support/multidex/1.0.1/AndroidManifest.xml:18:5-42
	android:targetSdkVersion
		ADDED from [com.couchbase.lite:couchbase-lite-android:1.1.0-2184] /Users/kumargaurav/TraconmobiProject/6Aug/app/build/intermediates/exploded-aar/com.couchbase.lite/couchbase-lite-android/1.1.0-2184/AndroidManifest.xml:9:9-38
	android:minSdkVersion
		INJECTED from /Users/kumargaurav/TraconmobiProject/6Aug/app/src/main/AndroidManifest.xml
		INJECTED from /Users/kumargaurav/TraconmobiProject/6Aug/app/src/main/AndroidManifest.xml
